Error: unrecognized flag --trace-bailout
Try --help for options
[marking 0x0014b0171fb9 <JSFunction next (sfi = 0x1450eca681)> for optimized recompilation, reason: small function]
[compiling method 0x0014b0171fb9 <JSFunction next (sfi = 0x1450eca681)> using TurboFan]
[marking 0x0014b0171f49 <JSFunction move (sfi = 0x1450eca5d1)> for optimized recompilation, reason: small function]
[compiling method 0x0014b0171f49 <JSFunction move (sfi = 0x1450eca5d1)> using TurboFan]
[optimizing 0x0014b0171f49 <JSFunction move (sfi = 0x1450eca5d1)> - took 0.142, 0.486, 0.019 ms]
[completed optimizing 0x0014b0171f49 <JSFunction move (sfi = 0x1450eca5d1)>]
[marking 0x001450ecc1a1 <JSFunction readUntil.symbolEnd (sfi = 0x1450eca7e1)> for optimized recompilation, reason: small function]
[optimizing 0x0014b0171fb9 <JSFunction next (sfi = 0x1450eca681)> - took 0.535, 1.166, 0.013 ms]
[completed optimizing 0x0014b0171fb9 <JSFunction next (sfi = 0x1450eca681)>]
[compiling method 0x001450ecc1a1 <JSFunction readUntil.symbolEnd (sfi = 0x1450eca7e1)> using TurboFan]
[marking 0x0014b016b779 <JSFunction lex (sfi = 0x1450ec5151)> for optimized recompilation, reason: hot and stable]
[marking 0x0014b0171f11 <JSFunction is (sfi = 0x1450eca579)> for optimized recompilation, reason: small function]
[compiling method 0x0014b0171f11 <JSFunction is (sfi = 0x1450eca579)> using TurboFan]
[marking 0x0014b0171021 <JSFunction readUntil (sfi = 0x1450eca261)> for optimized recompilation, reason: small function]
[compiling method 0x0014b0171021 <JSFunction readUntil (sfi = 0x1450eca261)> using TurboFan]
[optimizing 0x00144203cea1 <JSFunction is (sfi = 0x1450eca579)> - took 0.139, 0.832, 0.222 ms]
[completed optimizing 0x00144203cea1 <JSFunction is (sfi = 0x1450eca579)>]
[optimizing 0x001450ecc1a1 <JSFunction readUntil.symbolEnd (sfi = 0x1450eca7e1)> - took 0.389, 3.321, 0.037 ms]
[completed optimizing 0x001450ecc1a1 <JSFunction readUntil.symbolEnd (sfi = 0x1450eca7e1)>]
[optimizing 0x00144203bfd1 <JSFunction readUntil (sfi = 0x1450eca261)> - took 0.252, 7.155, 0.012 ms]
[completed optimizing 0x00144203bfd1 <JSFunction readUntil (sfi = 0x1450eca261)>]
[marking 0x00144203c451 <JSFunction node (sfi = 0x1450ecb521)> for optimized recompilation, reason: small function]
[compiling method 0x00144203c451 <JSFunction node (sfi = 0x1450ecb521)> using TurboFan]
[optimizing 0x00144203c451 <JSFunction node (sfi = 0x1450ecb521)> - took 0.175, 0.630, 0.018 ms]
[completed optimizing 0x00144203c451 <JSFunction node (sfi = 0x1450ecb521)>]
[marking 0x00144203c011 <JSFunction readString (sfi = 0x1450eca2b9)> for optimized recompilation, reason: hot and stable]
[compiling method 0x00144203c011 <JSFunction readString (sfi = 0x1450eca2b9)> using TurboFan]
[optimizing 0x001450ed1571 <JSFunction readString (sfi = 0x1450eca2b9)> - took 0.350, 2.314, 0.023 ms]
[completed optimizing 0x001450ed1571 <JSFunction readString (sfi = 0x1450eca2b9)>]
[compiling method 0x001450ed1819 <JSFunction lex (sfi = 0x1450ec5151)> using TurboFan OSR]
[optimizing 0x001450ed1819 <JSFunction lex (sfi = 0x1450ec5151)> - took 1.012, 8.202, 0.052 ms]
[marking dependent code 0x0029bfa85f41 (opt #5) for deoptimization, reason: allocation-site-tenuring-changed]
[marking dependent code 0x0029bfa862c1 (opt #6) for deoptimization, reason: allocation-site-tenuring-changed]
[marking dependent code 0x0029bfa87221 (opt #7) for deoptimization, reason: allocation-site-tenuring-changed]
[deoptimize marked code in all contexts]
[deoptimizing (DEOPT lazy): begin 0x001450ed1819 <JSFunction lex (sfi = 0x1450ec5151)> (opt #7) @74, FP to SP delta: 216, caller sp: 0x7ffeec8e0c68]
  reading input frame lex => bytecode_offset=650, args=2, height=14, retval=0(#0); inputs:
      0: 0x001450ed1819 ;  [fp -  16]  0x001450ed1819 <JSFunction lex (sfi = 0x1450ec5151)>
      1: 0x00146f6804d1 ;  [fp +  24]  0x00146f6804d1 <undefined>
      2: 0x001450ec9aa1 ;  [fp +  16]  0x001450ec9aa1 <Very long string[49099435]>
      3: 0x001450ed15b1 ;  [fp - 144]  0x001450ed15b1 <FunctionContext[20]>
      4: 0x001450ed1571 ;  [fp -  40]  0x001450ed1571 <JSFunction readString (sfi = 0x1450eca2b9)>
      5: 0x001450ed17d9 ;  [fp -  48]  0x001450ed17d9 <JSFunction readDecimal (sfi = 0x1450eca311)>
      6: 0x001450ed1799 ;  [fp -  56]  0x001450ed1799 <JSFunction readSharp (sfi = 0x1450eca3c1)>
      7: 0x001450ed1779 ;  [fp -  64]  0x001450ed1779 <JSArray[164265]>
      8: 0x00146f680e19 ; (literal 32) 0x00146f680e19 <Odd Oddball: optimized_out>
      9: 0x00146f680e19 ; (literal 32) 0x00146f680e19 <Odd Oddball: optimized_out>
     10: 0x00146f680e19 ; (literal 32) 0x00146f680e19 <Odd Oddball: optimized_out>
     11: 0x00147a11acb9 ; (literal 33) 0x00147a11acb9 <JSFunction push (sfi = 0x14d3291059)>
     12: 0x00146f680e19 ; (literal 32) 0x00146f680e19 <Odd Oddball: optimized_out>
     13: 0x00146f680e19 ; (literal 32) 0x00146f680e19 <Odd Oddball: optimized_out>
     14: 0x00146f680e19 ; (literal 32) 0x00146f680e19 <Odd Oddball: optimized_out>
     15: 0x00146f680e19 ; (literal 32) 0x00146f680e19 <Odd Oddball: optimized_out>
     16: 0x00146f680e19 ; (literal 32) 0x00146f680e19 <Odd Oddball: optimized_out>
     17: 0x00146f680e19 ; (literal 32) 0x00146f680e19 <Odd Oddball: optimized_out>
  reading input frame readString => bytecode_offset=35, args=1, height=6, retval=0(#0); inputs:
      0: 0x001450ed1571 ; (literal 59) 0x001450ed1571 <JSFunction readString (sfi = 0x1450eca2b9)>
      1: 0x00146f6804d1 ; (literal 37) 0x00146f6804d1 <undefined>
      2: 0x001450ed15b1 ; (literal 35) 0x001450ed15b1 <FunctionContext[20]>
      3: 0x001450ed1559 ;  [fp - 152]  0x001450ed1559 <String[1]: ">
      4: 0x00146358c681 ;  [fp - 160]  0x00146358c681 <String[23]: noun (common) (futsuume>
      5: 0x001450ed3501 ;  [fp - 176]  0x001450ed3501 <String[1]: i>
      6: 0x00146f680e19 ; (literal 32) 0x00146f680e19 <Odd Oddball: optimized_out>
      7: 0x00146f680e19 ; (literal 32) 0x00146f680e19 <Odd Oddball: optimized_out>
      8: 0x00146f680e19 ; (literal 32) 0x00146f680e19 <Odd Oddball: optimized_out>
  translating interpreted frame lex => bytecode_offset=650, height=104
    0x7ffeec8e0c60: [top + 160] <- 0x00146f6804d1 <undefined> ;  stack parameter (input #1)
    0x7ffeec8e0c58: [top + 152] <- 0x001450ec9aa1 <Very long string[49099435]> ;  stack parameter (input #2)
    -------------------------
    0x7ffeec8e0c50: [top + 144] <- 0x000108755464 ;  caller's pc
    0x7ffeec8e0c48: [top + 136] <- 0x7ffeec8e0ca0 ;  caller's fp
    0x7ffeec8e0c40: [top + 128] <- 0x001450ed15b1 <FunctionContext[20]> ;  context (input #3)
    0x7ffeec8e0c38: [top + 120] <- 0x001450ed1819 <JSFunction lex (sfi = 0x1450ec5151)> ;  function (input #0)
    0x7ffeec8e0c30: [top + 112] <- 0x001450ecaae9 <BytecodeArray[742]> ;  bytecode array
    0x7ffeec8e0c28: [top + 104] <- 0x02bf00000000 <Smi 703> ;  bytecode offset
    -------------------------
    0x7ffeec8e0c20: [top +  96] <- 0x001450ed1571 <JSFunction readString (sfi = 0x1450eca2b9)> ;  stack parameter (input #4)
    0x7ffeec8e0c18: [top +  88] <- 0x001450ed17d9 <JSFunction readDecimal (sfi = 0x1450eca311)> ;  stack parameter (input #5)
    0x7ffeec8e0c10: [top +  80] <- 0x001450ed1799 <JSFunction readSharp (sfi = 0x1450eca3c1)> ;  stack parameter (input #6)
    0x7ffeec8e0c08: [top +  72] <- 0x001450ed1779 <JSArray[164265]> ;  stack parameter (input #7)
    0x7ffeec8e0c00: [top +  64] <- 0x00146f680e19 <Odd Oddball: optimized_out> ;  stack parameter (input #8)
    0x7ffeec8e0bf8: [top +  56] <- 0x00146f680e19 <Odd Oddball: optimized_out> ;  stack parameter (input #9)
    0x7ffeec8e0bf0: [top +  48] <- 0x00146f680e19 <Odd Oddball: optimized_out> ;  stack parameter (input #10)
    0x7ffeec8e0be8: [top +  40] <- 0x00147a11acb9 <JSFunction push (sfi = 0x14d3291059)> ;  stack parameter (input #11)
    0x7ffeec8e0be0: [top +  32] <- 0x00146f680e19 <Odd Oddball: optimized_out> ;  stack parameter (input #12)
    0x7ffeec8e0bd8: [top +  24] <- 0x00146f680e19 <Odd Oddball: optimized_out> ;  stack parameter (input #13)
    0x7ffeec8e0bd0: [top +  16] <- 0x00146f680e19 <Odd Oddball: optimized_out> ;  stack parameter (input #14)
    0x7ffeec8e0bc8: [top +   8] <- 0x00146f680e19 <Odd Oddball: optimized_out> ;  stack parameter (input #15)
    0x7ffeec8e0bc0: [top +   0] <- 0x00146f680e19 <Odd Oddball: optimized_out> ;  stack parameter (input #16)
  translating interpreted frame readString => bytecode_offset=35, height=48
    0x7ffeec8e0bb8: [top +  96] <- 0x00146f6804d1 <undefined> ;  stack parameter (input #1)
    -------------------------
    0x7ffeec8e0bb0: [top +  88] <- 0x000108755760 ;  caller's pc
    0x7ffeec8e0ba8: [top +  80] <- 0x7ffeec8e0c48 ;  caller's fp
    0x7ffeec8e0ba0: [top +  72] <- 0x001450ed15b1 <FunctionContext[20]> ;  context (input #2)
    0x7ffeec8e0b98: [top +  64] <- 0x001450ed1571 <JSFunction readString (sfi = 0x1450eca2b9)> ;  function (input #0)
    0x7ffeec8e0b90: [top +  56] <- 0x001450ecd1e9 <BytecodeArray[113]> ;  bytecode array
    0x7ffeec8e0b88: [top +  48] <- 0x005800000000 <Smi 88> ;  bytecode offset
    -------------------------
    0x7ffeec8e0b80: [top +  40] <- 0x001450ed1559 <String[1]: "> ;  stack parameter (input #3)
    0x7ffeec8e0b78: [top +  32] <- 0x00146358c681 <String[23]: noun (common) (futsuume> ;  stack parameter (input #4)
    0x7ffeec8e0b70: [top +  24] <- 0x001450ed3501 <String[1]: i> ;  stack parameter (input #5)
    0x7ffeec8e0b68: [top +  16] <- 0x00146f680e19 <Odd Oddball: optimized_out> ;  stack parameter (input #6)
    0x7ffeec8e0b60: [top +   8] <- 0x00146f680e19 <Odd Oddball: optimized_out> ;  stack parameter (input #7)
    0x7ffeec8e0b58: [top +   0] <- 0x00146f680e19 <Odd Oddball: optimized_out> ;  accumulator (input #8)
[deoptimizing (lazy): end 0x001450ed1819 <JSFunction lex (sfi = 0x1450ec5151)> @74 => node=35, pc=0x000108755760, caller sp=0x7ffeec8e0c68, took 0.194 ms]
[marking 0x001450ed1571 <JSFunction readString (sfi = 0x1450eca2b9)> for optimized recompilation, reason: hot and stable]
[compiling method 0x001450ed1571 <JSFunction readString (sfi = 0x1450eca2b9)> using TurboFan]
[marking 0x001450ed1479 <JSFunction node (sfi = 0x1450ecb521)> for optimized recompilation, reason: small function]
[compiling method 0x001450ed1479 <JSFunction node (sfi = 0x1450ecb521)> using TurboFan]
[optimizing 0x001450ed1479 <JSFunction node (sfi = 0x1450ecb521)> - took 0.098, 0.529, 0.023 ms]
[completed optimizing 0x001450ed1479 <JSFunction node (sfi = 0x1450ecb521)>]
[optimizing 0x001450ed1571 <JSFunction readString (sfi = 0x1450eca2b9)> - took 0.321, 2.047, 0.017 ms]
[completed optimizing 0x001450ed1571 <JSFunction readString (sfi = 0x1450eca2b9)>]
[compiling method 0x001450ed1819 <JSFunction lex (sfi = 0x1450ec5151)> using TurboFan OSR]
[optimizing 0x001450ed1819 <JSFunction lex (sfi = 0x1450ec5151)> - took 0.774, 6.408, 0.056 ms]
[marking dependent code 0x0029bfa8a801 (opt #9) for deoptimization, reason: allocation-site-tenuring-changed]
[marking dependent code 0x0029bfa8ab81 (opt #8) for deoptimization, reason: allocation-site-tenuring-changed]
[marking dependent code 0x0029bfa8bae1 (opt #10) for deoptimization, reason: allocation-site-tenuring-changed]
[deoptimize marked code in all contexts]
[deoptimizing (DEOPT lazy): begin 0x001450ed1819 <JSFunction lex (sfi = 0x1450ec5151)> (opt #10) @42, FP to SP delta: 216, caller sp: 0x7ffeec8e0c68]
  reading input frame lex => bytecode_offset=650, args=2, height=14, retval=0(#1); inputs:
      0: 0x001450ed1819 ;  [fp -  16]  0x001450ed1819 <JSFunction lex (sfi = 0x1450ec5151)>
      1: 0x00146f6804d1 ;  [fp +  24]  0x00146f6804d1 <undefined>
      2: 0x001450ec9aa1 ;  [fp +  16]  0x001450ec9aa1 <Very long string[49099435]>
      3: 0x001450ed15b1 ;  [fp - 144]  0x001450ed15b1 <FunctionContext[20]>
      4: 0x001450ed1571 ;  [fp -  40]  0x001450ed1571 <JSFunction readString (sfi = 0x1450eca2b9)>
      5: 0x001450ed17d9 ;  [fp -  48]  0x001450ed17d9 <JSFunction readDecimal (sfi = 0x1450eca311)>
      6: 0x001450ed1799 ;  [fp -  56]  0x001450ed1799 <JSFunction readSharp (sfi = 0x1450eca3c1)>
      7: 0x001450ed1779 ;  [fp -  64]  0x001450ed1779 <JSArray[276057]>
      8: 0x00146f680e19 ; (literal 32) 0x00146f680e19 <Odd Oddball: optimized_out>
      9: 0x00146f680e19 ; (literal 32) 0x00146f680e19 <Odd Oddball: optimized_out>
     10: 0x00146f680e19 ; (literal 32) 0x00146f680e19 <Odd Oddball: optimized_out>
     11: 0x00147a11acb9 ; (literal 33) 0x00147a11acb9 <JSFunction push (sfi = 0x14d3291059)>
     12: 0x00146f680e19 ; (literal 32) 0x00146f680e19 <Odd Oddball: optimized_out>
     13: 0x00146f680e19 ; (literal 32) 0x00146f680e19 <Odd Oddball: optimized_out>
     14: 0x00146f680e19 ; (literal 32) 0x00146f680e19 <Odd Oddball: optimized_out>
     15: 0x00146f680e19 ; (literal 32) 0x00146f680e19 <Odd Oddball: optimized_out>
     16: 0x00146f680e19 ; (literal 32) 0x00146f680e19 <Odd Oddball: optimized_out>
     17: 0x00146f680e19 ; (literal 32) 0x00146f680e19 <Odd Oddball: optimized_out>
  reading input frame readString => bytecode_offset=107, args=1, height=6, retval=0(#1); inputs:
      0: 0x001450ed1571 ; (literal 59) 0x001450ed1571 <JSFunction readString (sfi = 0x1450eca2b9)>
      1: 0x00146f6804d1 ; (literal 37) 0x00146f6804d1 <undefined>
      2: 0x001450ed15b1 ; (literal 35) 0x001450ed15b1 <FunctionContext[20]>
      3: 0x00146f680e19 ; (literal 32) 0x00146f680e19 <Odd Oddball: optimized_out>
      4: 0x00146f680e19 ; (literal 32) 0x00146f680e19 <Odd Oddball: optimized_out>
      5: 0x00146f680e19 ; (literal 32) 0x00146f680e19 <Odd Oddball: optimized_out>
      6: 0x00146f680e19 ; (literal 32) 0x00146f680e19 <Odd Oddball: optimized_out>
      7: 0x00146f680e19 ; (literal 32) 0x00146f680e19 <Odd Oddball: optimized_out>
      8: 0x00146f680e19 ; (literal 32) 0x00146f680e19 <Odd Oddball: optimized_out>
  reading input frame string => bytecode_offset=23, args=2, height=4, retval=0(#1); inputs:
      0: 0x001450ed14b1 ; (literal 60) 0x001450ed14b1 <JSFunction string (sfi = 0x1450ecb5d1)>
      1: 0x001450ed14e9 ; (literal 61) 0x001450ed14e9 <Object map = 0x146b1e5ca9>
      2: 0x001434080139 ;  [fp - 160]  0x001434080139 <String[7]: 1062110>
      3: 0x001450ed1431 ; (literal 53) 0x001450ed1431 <BlockContext[7]>
      4: 0x00146f680e19 ; (literal 32) 0x00146f680e19 <Odd Oddball: optimized_out>
      5: 0x00146f680e19 ; (literal 32) 0x00146f680e19 <Odd Oddball: optimized_out>
      6: 0x00146f680e19 ; (literal 32) 0x00146f680e19 <Odd Oddball: optimized_out>
      7: 0x00146f680e19 ; (literal 32) 0x00146f680e19 <Odd Oddball: optimized_out>
  reading input frame node => bytecode_offset=58, args=3, height=6, retval=0(#1); inputs:
      0: 0x001450ed1479 ; (literal 54) 0x001450ed1479 <JSFunction node (sfi = 0x1450ecb521)>
      1: 0x00146f6804d1 ; (literal 37) 0x00146f6804d1 <undefined>
      2: 0x000100000000 ; (literal 62) 1
      3: 0x00146e169d59 ;  [fp - 152]  0x00146e169d59 <Object map = 0x146b1e50c9>
      4: 0x001450ed1431 ; (literal 53) 0x001450ed1431 <BlockContext[7]>
      5: 0x00146f680e19 ; (literal 32) 0x00146f680e19 <Odd Oddball: optimized_out>
      6: 0x00146f680e19 ; (literal 32) 0x00146f680e19 <Odd Oddball: optimized_out>
      7: 0x00146f680e19 ; (literal 32) 0x00146f680e19 <Odd Oddball: optimized_out>
      8: 0x00146f680e19 ; (literal 32) 0x00146f680e19 <Odd Oddball: optimized_out>
      9: 0x00146f680e19 ; (literal 32) 0x00146f680e19 <Odd Oddball: optimized_out>
     10: 0x00146f680e19 ; (literal 32) 0x00146f680e19 <Odd Oddball: optimized_out>
  translating interpreted frame lex => bytecode_offset=650, height=104
    0x7ffeec8e0c60: [top + 160] <- 0x00146f6804d1 <undefined> ;  stack parameter (input #1)
    0x7ffeec8e0c58: [top + 152] <- 0x001450ec9aa1 <Very long string[49099435]> ;  stack parameter (input #2)
    -------------------------
    0x7ffeec8e0c50: [top + 144] <- 0x000108755464 ;  caller's pc
    0x7ffeec8e0c48: [top + 136] <- 0x7ffeec8e0ca0 ;  caller's fp
    0x7ffeec8e0c40: [top + 128] <- 0x001450ed15b1 <FunctionContext[20]> ;  context (input #3)
    0x7ffeec8e0c38: [top + 120] <- 0x001450ed1819 <JSFunction lex (sfi = 0x1450ec5151)> ;  function (input #0)
    0x7ffeec8e0c30: [top + 112] <- 0x001450ecaae9 <BytecodeArray[742]> ;  bytecode array
    0x7ffeec8e0c28: [top + 104] <- 0x02bf00000000 <Smi 703> ;  bytecode offset
    -------------------------
    0x7ffeec8e0c20: [top +  96] <- 0x001450ed1571 <JSFunction readString (sfi = 0x1450eca2b9)> ;  stack parameter (input #4)
    0x7ffeec8e0c18: [top +  88] <- 0x001450ed17d9 <JSFunction readDecimal (sfi = 0x1450eca311)> ;  stack parameter (input #5)
    0x7ffeec8e0c10: [top +  80] <- 0x001450ed1799 <JSFunction readSharp (sfi = 0x1450eca3c1)> ;  stack parameter (input #6)
    0x7ffeec8e0c08: [top +  72] <- 0x001450ed1779 <JSArray[276057]> ;  stack parameter (input #7)
    0x7ffeec8e0c00: [top +  64] <- 0x00146f680e19 <Odd Oddball: optimized_out> ;  stack parameter (input #8)
    0x7ffeec8e0bf8: [top +  56] <- 0x00146f680e19 <Odd Oddball: optimized_out> ;  stack parameter (input #9)
    0x7ffeec8e0bf0: [top +  48] <- 0x00146f680e19 <Odd Oddball: optimized_out> ;  stack parameter (input #10)
    0x7ffeec8e0be8: [top +  40] <- 0x00147a11acb9 <JSFunction push (sfi = 0x14d3291059)> ;  stack parameter (input #11)
    0x7ffeec8e0be0: [top +  32] <- 0x00146f680e19 <Odd Oddball: optimized_out> ;  stack parameter (input #12)
    0x7ffeec8e0bd8: [top +  24] <- 0x00146f680e19 <Odd Oddball: optimized_out> ;  stack parameter (input #13)
    0x7ffeec8e0bd0: [top +  16] <- 0x00146f680e19 <Odd Oddball: optimized_out> ;  stack parameter (input #14)
    0x7ffeec8e0bc8: [top +   8] <- 0x00146f680e19 <Odd Oddball: optimized_out> ;  stack parameter (input #15)
    0x7ffeec8e0bc0: [top +   0] <- 0x00146f680e19 <Odd Oddball: optimized_out> ;  stack parameter (input #16)
  translating interpreted frame readString => bytecode_offset=107, height=40
    0x7ffeec8e0bb8: [top +  88] <- 0x00146f6804d1 <undefined> ;  stack parameter (input #1)
    -------------------------
    0x7ffeec8e0bb0: [top +  80] <- 0x000108755760 ;  caller's pc
    0x7ffeec8e0ba8: [top +  72] <- 0x7ffeec8e0c48 ;  caller's fp
    0x7ffeec8e0ba0: [top +  64] <- 0x001450ed15b1 <FunctionContext[20]> ;  context (input #2)
    0x7ffeec8e0b98: [top +  56] <- 0x001450ed1571 <JSFunction readString (sfi = 0x1450eca2b9)> ;  function (input #0)
    0x7ffeec8e0b90: [top +  48] <- 0x001450ecd1e9 <BytecodeArray[113]> ;  bytecode array
    0x7ffeec8e0b88: [top +  40] <- 0x00a000000000 <Smi 160> ;  bytecode offset
    -------------------------
    0x7ffeec8e0b80: [top +  32] <- 0x00146f680e19 <Odd Oddball: optimized_out> ;  stack parameter (input #3)
    0x7ffeec8e0b78: [top +  24] <- 0x00146f680e19 <Odd Oddball: optimized_out> ;  stack parameter (input #4)
    0x7ffeec8e0b70: [top +  16] <- 0x00146f680e19 <Odd Oddball: optimized_out> ;  stack parameter (input #5)
    0x7ffeec8e0b68: [top +   8] <- 0x00146f680e19 <Odd Oddball: optimized_out> ;  stack parameter (input #6)
    0x7ffeec8e0b60: [top +   0] <- 0x00146f680e19 <Odd Oddball: optimized_out> ;  stack parameter (input #7)
  translating interpreted frame string => bytecode_offset=23, height=24
    0x7ffeec8e0b58: [top +  80] <- 0x001450ed14e9 <Object map = 0x146b1e5ca9> ;  stack parameter (input #1)
    0x7ffeec8e0b50: [top +  72] <- 0x001434080139 <String[7]: 1062110> ;  stack parameter (input #2)
    -------------------------
    0x7ffeec8e0b48: [top +  64] <- 0x000108755760 ;  caller's pc
    0x7ffeec8e0b40: [top +  56] <- 0x7ffeec8e0ba8 ;  caller's fp
    0x7ffeec8e0b38: [top +  48] <- 0x001450ed1431 <BlockContext[7]> ;  context (input #3)
    0x7ffeec8e0b30: [top +  40] <- 0x001450ed14b1 <JSFunction string (sfi = 0x1450ecb5d1)> ;  function (input #0)
    0x7ffeec8e0b28: [top +  32] <- 0x001450ecd591 <BytecodeArray[29]> ;  bytecode array
    0x7ffeec8e0b20: [top +  24] <- 0x004c00000000 <Smi 76> ;  bytecode offset
    -------------------------
    0x7ffeec8e0b18: [top +  16] <- 0x00146f680e19 <Odd Oddball: optimized_out> ;  stack parameter (input #4)
    0x7ffeec8e0b10: [top +   8] <- 0x00146f680e19 <Odd Oddball: optimized_out> ;  stack parameter (input #5)
    0x7ffeec8e0b08: [top +   0] <- 0x00146f680e19 <Odd Oddball: optimized_out> ;  stack parameter (input #6)
  translating interpreted frame node => bytecode_offset=58, height=48
    0x7ffeec8e0b00: [top + 112] <- 0x00146f6804d1 <undefined> ;  stack parameter (input #1)
    0x7ffeec8e0af8: [top + 104] <- 0x000100000000 <Smi 1> ;  stack parameter (input #2)
    0x7ffeec8e0af0: [top +  96] <- 0x00146e169d59 <Object map = 0x146b1e50c9> ;  stack parameter (input #3)
    -------------------------
    0x7ffeec8e0ae8: [top +  88] <- 0x000108755760 ;  caller's pc
    0x7ffeec8e0ae0: [top +  80] <- 0x7ffeec8e0b40 ;  caller's fp
    0x7ffeec8e0ad8: [top +  72] <- 0x001450ed1431 <BlockContext[7]> ;  context (input #4)
    0x7ffeec8e0ad0: [top +  64] <- 0x001450ed1479 <JSFunction node (sfi = 0x1450ecb521)> ;  function (input #0)
    0x7ffeec8e0ac8: [top +  56] <- 0x001450ecbf79 <BytecodeArray[64]> ;  bytecode array
    0x7ffeec8e0ac0: [top +  48] <- 0x006f00000000 <Smi 111> ;  bytecode offset
    -------------------------
    0x7ffeec8e0ab8: [top +  40] <- 0x00146f680e19 <Odd Oddball: optimized_out> ;  stack parameter (input #5)
    0x7ffeec8e0ab0: [top +  32] <- 0x00146f680e19 <Odd Oddball: optimized_out> ;  stack parameter (input #6)
    0x7ffeec8e0aa8: [top +  24] <- 0x00146f680e19 <Odd Oddball: optimized_out> ;  stack parameter (input #7)
    0x7ffeec8e0aa0: [top +  16] <- 0x00146f680e19 <Odd Oddball: optimized_out> ;  stack parameter (input #8)
    0x7ffeec8e0a98: [top +   8] <- 0x00146f680e19 <Odd Oddball: optimized_out> ;  stack parameter (input #9)
    0x7ffeec8e0a90: [top +   0] <- 0x00146e169d79 ;  return value 0
[deoptimizing (lazy): end 0x001450ed1819 <JSFunction lex (sfi = 0x1450ec5151)> @42 => node=58, pc=0x000108755760, caller sp=0x7ffeec8e0c68, took 0.746 ms]
[marking 0x001450ef3241 <JSFunction identifier (sfi = 0x1450ecb731)> for optimized recompilation, reason: small function]
[compiling method 0x001450ef3241 <JSFunction identifier (sfi = 0x1450ecb731)> using TurboFan]
[marking 0x001450ed1571 <JSFunction readString (sfi = 0x1450eca2b9)> for optimized recompilation, reason: hot and stable]
[compiling method 0x001450ed1571 <JSFunction readString (sfi = 0x1450eca2b9)> using TurboFan]
[optimizing 0x001450ef3241 <JSFunction identifier (sfi = 0x1450ecb731)> - took 0.171, 0.693, 0.019 ms]
[completed optimizing 0x001450ef3241 <JSFunction identifier (sfi = 0x1450ecb731)>]
[optimizing 0x001450ed1571 <JSFunction readString (sfi = 0x1450eca2b9)> - took 0.294, 2.250, 0.021 ms]
[completed optimizing 0x001450ed1571 <JSFunction readString (sfi = 0x1450eca2b9)>]
[compiling method 0x001450ed1571 <JSFunction readString (sfi = 0x1450eca2b9)> using TurboFan OSR]
[optimizing 0x001450ed1571 <JSFunction readString (sfi = 0x1450eca2b9)> - took 0.260, 2.195, 0.048 ms]
[compiling method 0x001450ed1819 <JSFunction lex (sfi = 0x1450ec5151)> using TurboFan OSR]
[optimizing 0x001450ed1819 <JSFunction lex (sfi = 0x1450ec5151)> - took 0.918, 7.328, 0.061 ms]
[marking 0x0014edfc7d89 <JSFunction parseNodes (sfi = 0x1450ec5209)> for optimized recompilation, reason: hot and stable]
[marking 0x00141aec92a9 <JSFunction push (sfi = 0x141586be29)> for optimized recompilation, reason: small function]
[compiling method 0x00141aec92a9 <JSFunction push (sfi = 0x141586be29)> using TurboFan]
[optimizing 0x00141aec92a9 <JSFunction push (sfi = 0x141586be29)> - took 0.160, 0.512, 0.025 ms]
[completed optimizing 0x00141aec92a9 <JSFunction push (sfi = 0x141586be29)>]
[marking 0x00141aec9269 <JSFunction popStack (sfi = 0x141586bdd1)> for optimized recompilation, reason: small function]
[compiling method 0x00141aec9269 <JSFunction popStack (sfi = 0x141586bdd1)> using TurboFan]
[optimizing 0x00141aec9269 <JSFunction popStack (sfi = 0x141586bdd1)> - took 0.119, 0.413, 0.017 ms]
[completed optimizing 0x00141aec9269 <JSFunction popStack (sfi = 0x141586bdd1)>]
[compiling method 0x0014edfc7d89 <JSFunction parseNodes (sfi = 0x1450ec5209)> using TurboFan OSR]
[marking dependent code 0x0029bfa908a1 (opt #16) for deoptimization, reason: prototype-check]
[deoptimize marked code in all contexts]
[aborted optimizing 0x0014edfc7d89 <JSFunction parseNodes (sfi = 0x1450ec5209)> because: Bailed out due to dependency change]
[marking 0x00141aec9229 <JSFunction pushStack (sfi = 0x141586bd79)> for optimized recompilation, reason: hot and stable]
[compiling method 0x00141aec9229 <JSFunction pushStack (sfi = 0x141586bd79)> using TurboFan]
[marking 0x0014edfc7d89 <JSFunction parseNodes (sfi = 0x1450ec5209)> for optimized recompilation, reason: hot and stable]
[optimizing 0x00141aec9229 <JSFunction pushStack (sfi = 0x141586bd79)> - took 0.174, 0.871, 0.020 ms]
[completed optimizing 0x00141aec9229 <JSFunction pushStack (sfi = 0x141586bd79)>]
[compiling method 0x0014edfc7d89 <JSFunction parseNodes (sfi = 0x1450ec5209)> using TurboFan]
[marking 0x001450efb739 <JSFunction Identifier (sfi = 0x1450ec5791)> for optimized recompilation, reason: small function]
[compiling method 0x001450efb739 <JSFunction Identifier (sfi = 0x1450ec5791)> using TurboFan]
[optimizing 0x001450efb739 <JSFunction Identifier (sfi = 0x1450ec5791)> - took 0.071, 0.238, 0.017 ms]
[completed optimizing 0x001450efb739 <JSFunction Identifier (sfi = 0x1450ec5791)>]
[marking 0x001450efde29 <JSFunction (sfi = 0x1450ec6639)> for optimized recompilation, reason: small function]
[compiling method 0x001450efde29 <JSFunction (sfi = 0x1450ec6639)> using TurboFan]
[optimizing 0x001450efde29 <JSFunction (sfi = 0x1450ec6639)> - took 0.071, 0.222, 0.019 ms]
[completed optimizing 0x001450efde29 <JSFunction (sfi = 0x1450ec6639)>]
[marking 0x00141aec9269 <JSFunction popStack (sfi = 0x141586bdd1)> for optimized recompilation, reason: small function]
[compiling method 0x00141aec9269 <JSFunction popStack (sfi = 0x141586bdd1)> using TurboFan]
[optimizing 0x00141aec9269 <JSFunction popStack (sfi = 0x141586bdd1)> - took 0.109, 0.450, 0.016 ms]
[completed optimizing 0x00141aec9269 <JSFunction popStack (sfi = 0x141586bdd1)>]
[optimizing 0x0014edfc7d89 <JSFunction parseNodes (sfi = 0x1450ec5209)> - took 0.646, 6.623, 0.044 ms]
[completed optimizing 0x0014edfc7d89 <JSFunction parseNodes (sfi = 0x1450ec5209)>]
[deoptimizing (DEOPT soft): begin 0x0014edfc7d89 <JSFunction parseNodes (sfi = 0x1450ec5209)> (opt #19) @47, FP to SP delta: 112, caller sp: 0x7ffeec8e0b68]
            ;;; deoptimize at <http://0.0.0.0:8000/index.js:465:15>, Insufficient type feedback for generic named access
  reading input frame parseNodes => bytecode_offset=542, args=3, height=15, retval=0(#0); inputs:
      0: 0x0014edfc7d89 ;  [fp -  16]  0x0014edfc7d89 <JSFunction parseNodes (sfi = 0x1450ec5209)>
      1: 0x00146f6804d1 ;  [fp +  32]  0x00146f6804d1 <undefined>
      2: 0x001450ed1779 ;  [fp +  24]  0x001450ed1779 <JSArray[9397016]>
      3: 0x001450ed18f9 ;  [fp +  16]  0x001450ed18f9 <Object map = 0x146b1c04f9>
      4: 0x001431763ad9 ;  [fp -  32]  0x001431763ad9 <BlockContext[7]>
      5: 0x00146f680e19 ; (literal 14) 0x00146f680e19 <Odd Oddball: optimized_out>
      6: 0x00146f680e19 ; (literal 14) 0x00146f680e19 <Odd Oddball: optimized_out>
      7: 0x00146f680e19 ; (literal 14) 0x00146f680e19 <Odd Oddball: optimized_out>
      8: 0x00146f680e19 ; (literal 14) 0x00146f680e19 <Odd Oddball: optimized_out>
      9: 0x00146f680e19 ; (literal 14) 0x00146f680e19 <Odd Oddball: optimized_out>
     10: 0x00146f680e19 ; (literal 14) 0x00146f680e19 <Odd Oddball: optimized_out>
     11: 0x00146f680e19 ; (literal 14) 0x00146f680e19 <Odd Oddball: optimized_out>
     12: 0x00146f680e19 ; (literal 14) 0x00146f680e19 <Odd Oddball: optimized_out>
     13: 0x001450ed16c1 ;  [fp -  88]  0x001450ed16c1 <FunctionContext[21]>
     14: 0x00146f680e19 ; (literal 14) 0x00146f680e19 <Odd Oddball: optimized_out>
     15: 0x00147a11a3f9 ; rax 0x00147a11a3f9 <JSFunction Array (sfi = 0x14d3290cb9)>
     16: 0x00146f680e19 ; (literal 14) 0x00146f680e19 <Odd Oddball: optimized_out>
     17: 0x00146f680e19 ; (literal 14) 0x00146f680e19 <Odd Oddball: optimized_out>
     18: 0x00146f680e19 ; (literal 14) 0x00146f680e19 <Odd Oddball: optimized_out>
     19: 0x00146f680e19 ; (literal 14) 0x00146f680e19 <Odd Oddball: optimized_out>
  translating interpreted frame parseNodes => bytecode_offset=542, height=120
    0x7ffeec8e0b60: [top + 184] <- 0x00146f6804d1 <undefined> ;  stack parameter (input #1)
    0x7ffeec8e0b58: [top + 176] <- 0x001450ed1779 <JSArray[9397016]> ;  stack parameter (input #2)
    0x7ffeec8e0b50: [top + 168] <- 0x001450ed18f9 <Object map = 0x146b1c04f9> ;  stack parameter (input #3)
    -------------------------
    0x7ffeec8e0b48: [top + 160] <- 0x0001087847b5 ;  caller's pc
    0x7ffeec8e0b40: [top + 152] <- 0x7ffeec8e0b98 ;  caller's fp
    0x7ffeec8e0b38: [top + 144] <- 0x001431763ad9 <BlockContext[7]> ;  context (input #4)
    0x7ffeec8e0b30: [top + 136] <- 0x0014edfc7d89 <JSFunction parseNodes (sfi = 0x1450ec5209)> ;  function (input #0)
    0x7ffeec8e0b28: [top + 128] <- 0x00141586c021 <BytecodeArray[631]> ;  bytecode array
    0x7ffeec8e0b20: [top + 120] <- 0x025300000000 <Smi 595> ;  bytecode offset
    -------------------------
    0x7ffeec8e0b18: [top + 112] <- 0x00146f680e19 <Odd Oddball: optimized_out> ;  stack parameter (input #5)
    0x7ffeec8e0b10: [top + 104] <- 0x00146f680e19 <Odd Oddball: optimized_out> ;  stack parameter (input #6)
    0x7ffeec8e0b08: [top +  96] <- 0x00146f680e19 <Odd Oddball: optimized_out> ;  stack parameter (input #7)
    0x7ffeec8e0b00: [top +  88] <- 0x00146f680e19 <Odd Oddball: optimized_out> ;  stack parameter (input #8)
    0x7ffeec8e0af8: [top +  80] <- 0x00146f680e19 <Odd Oddball: optimized_out> ;  stack parameter (input #9)
    0x7ffeec8e0af0: [top +  72] <- 0x00146f680e19 <Odd Oddball: optimized_out> ;  stack parameter (input #10)
    0x7ffeec8e0ae8: [top +  64] <- 0x00146f680e19 <Odd Oddball: optimized_out> ;  stack parameter (input #11)
    0x7ffeec8e0ae0: [top +  56] <- 0x00146f680e19 <Odd Oddball: optimized_out> ;  stack parameter (input #12)
    0x7ffeec8e0ad8: [top +  48] <- 0x001450ed16c1 <FunctionContext[21]> ;  stack parameter (input #13)
    0x7ffeec8e0ad0: [top +  40] <- 0x00146f680e19 <Odd Oddball: optimized_out> ;  stack parameter (input #14)
    0x7ffeec8e0ac8: [top +  32] <- 0x00147a11a3f9 <JSFunction Array (sfi = 0x14d3290cb9)> ;  stack parameter (input #15)
    0x7ffeec8e0ac0: [top +  24] <- 0x00146f680e19 <Odd Oddball: optimized_out> ;  stack parameter (input #16)
    0x7ffeec8e0ab8: [top +  16] <- 0x00146f680e19 <Odd Oddball: optimized_out> ;  stack parameter (input #17)
    0x7ffeec8e0ab0: [top +   8] <- 0x00146f680e19 <Odd Oddball: optimized_out> ;  stack parameter (input #18)
    0x7ffeec8e0aa8: [top +   0] <- 0x00146f680e19 <Odd Oddball: optimized_out> ;  accumulator (input #19)
[deoptimizing (soft): end 0x0014edfc7d89 <JSFunction parseNodes (sfi = 0x1450ec5209)> @47 => node=542, pc=0x000108755840, caller sp=0x7ffeec8e0b68, took 0.380 ms]

